-q -%i -w https://swirge.com/ -O "/home/mosco/websites/swirge.com" -n -%P -N0 -s2 -p7 -D -a -K0 -c4 -%k -A25000 -F "Mozilla/4.5 (compatible; HTTrack 3.0x; Windows 98)" -%F "<!-- Mirrored from %s%s by HTTrack Website Copier/3.x [XR&CO'2014], %s -->" +*.png +*.gif +*.jpg +*.jpeg +*.css +*.js -ad.doubleclick.net/* -%s -%u
File generated automatically on Wed, 03 Mar 2021 20:47:10, do NOT edit

To update a mirror, just launch httrack without any parameters
The existing cache will be used (and modified)
To have other options, retype all parameters and launch HTTrack
To continue an interrupted mirror, just launch httrack without any parameters

